_EwidencjaStudentow.bpl	3 802 112	2.4.1.0
_Stypendia.bpl	1 688 576	2.3.0.0
AkcjeWWW.bpl	371 200	2.4.0.0
Aktualizacja.bpl	114 176	2.2.0.0
AktualizacjaESS.exe	465 408	2.2.0.0
Aktualizacje.exe	169 472	
AktywacjaProjekt.exe	5 817 856	2.4.0.0
Archiwum.bpl	161 280	2.0.0.0
Blankiety.bpl	111 616	2.4.0.0
bledy.err	29 919	
Cenniki.bpl	593 920	2.4.0.0
cxDataC6.bpl	412 672	5.14.0.0
cxEditorsVCLC6.bpl	1 636 352	5.14.0.0
cxExportVCLC6.bpl	101 376	5.14.0.0
cxExtEditorsVCLC6.bpl	972 800	5.14.0.0
cxGridVCLC6.bpl	1 585 664	5.14.0.0
cxLibraryVCLC6.bpl	480 256	5.14.0.0
cxPageControlVCLC6.bpl	236 544	2.3.6.0
cxSchedulerVCLC6.bpl	1 019 392	2.4.0.0
cxTreeListVCLC6.bpl	540 160	4.8.0.0
cxVerticalGridVCLC6.bpl	504 832	3.9.0.0
Czesne.bpl	2 637 312	2.4.0.0
CzesneGeneratory.bpl	504 320	2.4.0.0
CzesneKasa.bpl	521 216	2.4.0.0
CzesneOperacje.bpl	544 256	2.4.0.0
dclcxLibraryVCLC6.bpl	175 616	5.10.0.0
DCPcppbuilder6.bpl	326 656	1.0.0.0
designide60.bpl	706 560	6.0.10.166
Dokumentacja ESS.chm	971 556	
dxBarC6.bpl	670 720	5.5.6.0
dxMasterViewC6.bpl	310 784	1.2.1.0
dxPSCorec6.bpl	2 187 776	3.5.5.0
dxPScxCommonC6.bpl	333 824	3.5.5.0
dxPScxExtCommonC6.bpl	301 056	3.5.5.0
dxPScxGridLnkc6.bpl	614 912	3.5.5.0
dxPSdxDBCtrlLnkC6.bpl	108 544	3.5.5.0
dxPSdxDBGrLnkC6.bpl	60 928	3.5.5.0
dxPSLnksC6.bpl	367 104	3.5.5.0
dxPSTLLnkC6.bpl	230 400	3.5.5.0
dxThemeC6.bpl	53 760	5.14.0.0
DzialKsztalcenia.bpl	272 896	2.4.0.0
DzialNauki.bpl	872 960	2.4.0.0
EdytorBlokow.bpl	416 256	2.4.0.0
EdytorProgramow.bpl	424 960	2.4.0.0
EdytorPrzedmiotow.bpl	773 120	2.4.0.0
EdytorRaportow.exe	79 872	
EdytorSiatek.bpl	346 112	2.4.0.0
ESSOperacje.exe	1 338 880	2.4.0.0
ESSTools.bpl	58 368	2.4.0.0
ESSVCLTools.bpl	71 680	2.4.0.0
EwidencjaStudentow.bpl	3 796 992	2.4.1.2
Excel.bpl	72 192	2.4.0.0
Harmonogram.bpl	713 728	2.4.0.0
hasp.bpl	356 864	1.0.0.0
KartaEgzaminacyjna.bpl	817 152	2.4.0.0
KomponentyEss.bpl	28 160	
KonwersjaRekrutacja.bpl	424 448	2.4.0.0
KreatorRaportyBankowe.bpl	138 752	2.4.0.0
Legitymacja.bpl	142 336	2.4.0.0
Legitymacja_elektroniczna.dll	652 288	
Legitymacja_elektroniczna.dll_	646 656	
Licencje.bpl	524 800	2.4.0.0
localtestrun.testrunconfig	4 638	
MonitorOperacji.exe	5 317 632	2.4.0.0
MSHTML.bpl	1 462 784	1.0.0.0
NowyPlanZajec.bpl	1 788 416	2.4.0.0
Pensum.bpl	553 472	2.4.0.0
Place.bpl	523 776	2.4.0.0
Powiazania.exe	291 840	
PRC_Pracownicy.bpl	97 280	2.4.0.0
ProjektESS.chm	6 079 632	
Protokoly.bpl	487 424	2.4.0.0
PublikowanieDanych.bpl	673 280	2.4.0.0
Raporty.bpl	1 425 408	2.4.0.0
RaportyHTML.bpl	1 698 304	2.0.0.0
RegularExpressionComponentBcb6.bpl	535 040	3.1.3.0
RekrutacjaOnline.bpl	1 489 408	2.4.0.0
RezerwacjeSal.bpl	485 888	2.4.0.0
RSBGZ.exe	5 983 232	
sigCryptoAPI.dll	145 288	2.3.0.33
Slowniki.bpl	1 330 688	2.4.1.0
SlownikiDOS.bpl	387 584	2.4.0.0
StatusUser.bpl	48 640	2.4.0.0
Stypendia.bpl	1 671 680	2.4.1.0
Suplement.bpl	658 432	2.4.0.0
SuplementSiatka.bpl	587 776	2.4.0.0
Terminy.bpl	216 064	2.4.0.0
treeinfo.wc	99	
tsere300_bcb6_mdi.dll	1 028 608	3.1.0.0
uMain.ess	322	
uMain.exe	1 440 256	2.4.1.0
uMain.exe.manifest	741	
uSzyfrowanie.dll	153 600	
vssver.scc	736	
winscard.dll	99 328	5.1.2600.2180
WIWiezyIntegralnosci.bpl	279 552	2.4.0.0
WspolneEss.bpl	783 360	2.4.0.0
xp_wbk.dll	1 881 600	0.0.0.60
ZBRGC.dll	65 536	
ZBRPrinter.dll	110 592	
